Analyzing Airbnb data
…
Location

For my data cleaning, I have chosen to filter out all columns related to the location of each Airbnb listing, including its latitude, longitude, and neighborhood located in NYC among other things. While it was clear from the start that I would likely not use most of the variable I selected, I believe that keeping in mind these other forms of listing location could be useful down the line. I also obviously included the price of said listings, mutating a new column that make the price into a raw number instead of a character string.

# Data cleaning: main cleaning was $ signs and selecting necessary variables
df_location_price <- airbnb_data |>
  select(
    latitude, longitude, neighbourhood, neighbourhood_cleansed,
    neighbourhood_group_cleansed, price
  ) |>
  mutate(numb_dollar = as.numeric(gsub("\\$|,", "", price)))
df_location_price

# A tibble: 42,931 × 7
   latitude longitude neighbourhood                      neighbourhood_cleansed
      <dbl>     <dbl> <chr>                              <chr>                 
 1     40.6     -73.9 <NA>                               Canarsie              
 2     40.6     -73.9 <NA>                               Canarsie              
 3     40.5     -74.3 <NA>                               Tottenville           
 4     40.6     -74.0 <NA>                               Sheepshead Bay        
 5     40.9     -73.9 The Bronx, New York, United States North Riverdale       
 6     40.8     -73.8 Queens, New York, United States    Flushing              
 7     40.8     -73.8 <NA>                               Whitestone            
 8     40.5     -74.2 <NA>                               Prince's Bay          
 9     40.7     -73.8 <NA>                               Richmond Hill         
10     40.9     -73.9 RIVERDALE, New York, United States Kingsbridge           
# ℹ 42,921 more rows
# ℹ 3 more variables: neighbourhood_group_cleansed <chr>, price <dbl>,
#   numb_dollar <dbl>
…
A major issue with amenities is that it is stored as a character list. We need to parse and clean this so that we can do more analysis.

amenities_df <- airbnb_data |>
  # Create subset of Airbnb data pertaining to amenities
  select(id, amenities) |>
  # Replace any occurrences of square brackets with empty string
  mutate(amenities = gsub("\\[|\\]", "", amenities)) |>
  # Split the list by comma and make separate rows
  separate_rows(amenities, sep = ", ") |>
  # Unnest the list
  unnest(amenities)
amenities_df

# A tibble: 1,121,291 × 2
        id amenities                              
     <dbl> <chr>                                  
 1 8.02e17 "\"50\\\" TV\""                        
 2 8.02e17 "\"Bathtub\""                          
 3 8.02e17 "\"Microwave\""                        
 4 8.02e17 "\"Free driveway parking on premises\""
 5 8.02e17 "\"Laundromat nearby\""                
 6 8.02e17 "\"Kitchen\""                          
 7 8.02e17 "\"Refrigerator\""                     
 8 8.02e17 "\"Central air conditioning\""         
 9 8.02e17 "\"Smoke alarm\""                      
10 8.02e17 "\"Central heating\""                  
# ℹ 1,121,281 more rows

# Save a csv copy for future purposes
# write.csv(amenities_df, "data/airbnb_data/amenities_data.csv", row.names=FALSE)

Now that we have parsed the amenities out of its list format, there is another problem. How the amenities are reported in the dataset is dependent on how the host described their list of amenities. In other words, there is no standardization on how amenities are reported. That is why we have multiple variations of the same amenity. For example, we have several variations of “HDTV” depending on the size of the HDTV and the applications (Amazon Prime, Netflix, etc.) that come with it among other factors. Similarly, many listings have “fast wifi” listed as an amenity, but we see variations depending on the speed listed.

Is there a way to consolidate the different variations? One way is to conduct partial matching with some desired amenity (the below code looks for “fast wifi”) and create a new column to store a boolean that describes whether the listing has that desired amenity or not.

fast_wifi <- amenities_df |>
  mutate(fast_wifi = str_detect(amenities, regex("fast wifi", ignore_case = TRUE)))
fast_wifi

# A tibble: 1,121,291 × 3
        id amenities                               fast_wifi
     <dbl> <chr>                                   <lgl>    
 1 8.02e17 "\"50\\\" TV\""                         FALSE    
 2 8.02e17 "\"Bathtub\""                           FALSE    
 3 8.02e17 "\"Microwave\""                         FALSE    
 4 8.02e17 "\"Free driveway parking on premises\"" FALSE    
 5 8.02e17 "\"Laundromat nearby\""                 FALSE    
 6 8.02e17 "\"Kitchen\""                           FALSE    
 7 8.02e17 "\"Refrigerator\""                      FALSE    
 8 8.02e17 "\"Central air conditioning\""          FALSE    
 9 8.02e17 "\"Smoke alarm\""                       FALSE    
10 8.02e17 "\"Central heating\""                   FALSE    
# ℹ 1,121,281 more rows
…
  summarise(
    wifi = any(wifi),
    parking = any(parking),
    dryer = any(dryer),
    washer = any(washer),
    kitchen = any(kitchen)
  ) |>
  pivot_longer(
    cols = -id,
    names_to = "amenities",
    values_to = "listed"
  )
listing_esential_amenitites

# A tibble: 214,655 × 3
      id amenities listed
   <dbl> <chr>     <lgl> 
 1  2595 wifi      TRUE  
 2  2595 parking   TRUE  
 3  2595 dryer     TRUE  
 4  2595 washer    FALSE 
 5  2595 kitchen   TRUE  
 6  5121 wifi      TRUE  
 7  5121 parking   FALSE 
 8  5121 dryer     FALSE 
 9  5121 washer    FALSE 
10  5121 kitchen   TRUE  
# ℹ 214,645 more rows
…
    host_id,
    host_is_superhost,
    host_identity_verified,
    host_has_profile_pic,
    host_since,
    host_response_time,
    host_response_rate,
    host_acceptance_rate,
    host_listings_count,
    review_scores_communication,
    price
  )
host_char

# A tibble: 42,931 × 11
     host_id host_is_superhost host_identity_verified host_has_profile_pic
       <dbl> <lgl>             <lgl>                  <lgl>               
 1 495455523 FALSE             FALSE                  TRUE                
 2 488760226 FALSE             TRUE                   TRUE                
 3 461263600 FALSE             FALSE                  FALSE               
 4 475699129 TRUE              TRUE                   TRUE                
 5 397288055 FALSE             TRUE                   TRUE                
 6 239139334 FALSE             TRUE                   TRUE                
 7 426682883 FALSE             FALSE                  FALSE               
 8  77290831 FALSE             TRUE                   TRUE                
 9  51426218 FALSE             TRUE                   TRUE                
10  21444167 TRUE              TRUE                   TRUE                
# ℹ 42,921 more rows
# ℹ 7 more variables: host_since <date>, host_response_time <chr>,
#   host_response_rate <chr>, host_acceptance_rate <chr>,
#   host_listings_count <dbl>, review_scores_communication <dbl>, price <dbl>

A subset of the aforementioned dataframe has to do with the number of listings a host has and how that might impact the average price of a host’s listings. To do so, we need to select host_listings_count and the price. We make sure to omit any NA values for visual easability purposes.

# Data frame with each host, their total num of listings
# and their average price
host_list <- host_char |>
  select(host_id, host_listings_count, price) |>
  group_by(host_id) |>
  mutate(avg_price_host = mean(price)) |>
  distinct(host_id, .keep_all = TRUE) |>
  na.omit(host_listings_count)

host_list

# A tibble: 27,450 × 4
# Groups:   host_id [27,450]
     host_id host_listings_count price avg_price_host
       <dbl>               <dbl> <dbl>          <dbl>
 1 495455523                   1   143          143  
 2 488760226                   2    30           50  
 3 461263600                   1   157          157  
 4 475699129                   7    89           75.7
 5 397288055                   1   125          125  
 6 239139334                   3    63           59.7
 7 426682883                   1    82           82  
 8  77290831                   1   118          118  
 9  51426218                  10    49          146. 
10  21444167                   2   115          104. 
# ℹ 27,440 more rows
…
  select(
    host_id,
    host_is_superhost,
    host_identity_verified,
    host_has_profile_pic
  ) |>
  distinct(host_id, .keep_all = TRUE) |>
  mutate(
    host_is_superhost = if_else(host_is_superhost == "TRUE", 1, 0),
    host_identity_verified = if_else(host_identity_verified == "TRUE", 1, 0),
    host_has_profile_pic = if_else(host_has_profile_pic == "TRUE", 1, 0)
  )
superhost

# A tibble: 27,455 × 4
     host_id host_is_superhost host_identity_verified host_has_profile_pic
       <dbl>             <dbl>                  <dbl>                <dbl>
 1 495455523                 0                      0                    1
 2 488760226                 0                      1                    1
 3 461263600                 0                      0                    0
 4 475699129                 1                      1                    1
 5 397288055                 0                      1                    1
 6 239139334                 0                      1                    1
 7 426682883                 0                      0                    0
 8  77290831                 0                      1                    1
 9  51426218                 0                      1                    1
10  21444167                 1                      1                    1
# ℹ 27,445 more rows
…
# Find average price of listings per host
  group_by(host_id) |>
  mutate(price = mean(price)) |>
  # Remove repeat of same hosts
  distinct(host_id, .keep_all = TRUE) |>
  na.omit(rating)

host_rating

# A tibble: 21,412 × 3
# Groups:   host_id [21,412]
     host_id review_scores_communication price
       <dbl>                       <dbl> <dbl>
 1 488760226                        4.92  50  
 2 475699129                        5     75.7
 3 397288055                        4.88 125  
 4 239139334                        4.78  59.7
 5  77290831                        5    118  
 6  51426218                        5    146. 
 7  21444167                        4.93 104. 
 8 486718434                        5    179  
 9 479109924                        4.82 172  
10 179951095                        5     94  
# ℹ 21,402 more rows
…
