Analyzing Airbnb Data
…
Appendix 2: Additional analyses

Appendix 2A: Bathroom-to-bedroom ratio

The bathroom-to-bedroom ratio is an interesting factor in determining the price of Airbnb. Usually, luxury stayings tend to have a higher bathroom-to-bedroom ratio, which means there are more bathrooms than bedrooms. We will check if the assumption is true.

# Create a new variable for bathroom-to-bedroom ratio
ratio_listing <- mutate(bathroom_tidy, bath_bed_ratio = as.numeric(bathrooms) / bedrooms)

ratio_listing

# A tibble: 42,426 × 6
        id price bedrooms bathrooms_text bathrooms bath_bed_ratio
     <dbl> <dbl>    <dbl> <chr>              <dbl>          <dbl>
 1 8.02e17   143        1 1 bath               1            1    
 2 7.66e17    30        1 1 shared bath        0.5          0.5  
 3 6.36e17   157        2 2 baths              2            1    
 4 7.68e17    89        3 2 baths              2            0.667
 5 4.92e 7   125        2 1 bath               1            0.5  
 6 5.21e 7    63        1 1 shared bath        0.5          0.5  
 7 7.83e17    82        1 1 shared bath        0.5          0.5  
 8 3.91e 7   118        1 1 bath               1            1    
 9 6.55e17    49        1 1 shared bath        0.5          0.5  
10 6.73e 6   115        2 1 bath               1            0.5  
# ℹ 42,416 more rows
…
# A tibble: 1 × 12
  r.squared adj.r.squared sigma statistic p.value    df  logLik    AIC    BIC
      <dbl>         <dbl> <dbl>     <dbl>   <dbl> <dbl>   <dbl>  <dbl>  <dbl>
1     0.608         0.608 0.433     1102.       0    28 -11545. 23150. 23387.
# ℹ 3 more variables: deviance <dbl>, df.residual <int>, nobs <int>

tidy(all_21_fit)

# A tibble: 29 × 5
   term                                   estimate std.error statistic   p.value
   <chr>                                     <dbl>     <dbl>     <dbl>     <dbl>
 1 (Intercept)                              3.83     0.0576      66.5  0        
 2 neighbourhood_group_cleansedBrooklyn     0.177    0.0142      12.5  1.76e- 35
 3 neighbourhood_group_cleansedManhattan    0.503    0.0145      34.6  6.62e-255
 4 neighbourhood_group_cleansedQueens       0.0571   0.0149       3.84 1.25e-  4
 5 neighbourhood_group_cleansedStaten Is…  -0.0430   0.0283      -1.52 1.28e-  1
 6 wifiTRUE                                -0.122    0.0344      -3.55 3.85e-  4
 7 workspaceTRUE                            0.0460   0.00642      7.17 7.90e- 13
 8 quietTRUE                               -0.0388   0.00764     -5.08 3.74e-  7
 9 host_is_superhostTRUE                    0.0277   0.00685      4.05 5.24e-  5
10 host_identity_verifiedTRUE               0.0256   0.00941      2.72 6.60e-  3
# ℹ 19 more rows
…
# A tibble: 1 × 12
  r.squared adj.r.squared sigma statistic p.value    df  logLik    AIC    BIC
      <dbl>         <dbl> <dbl>     <dbl>   <dbl> <dbl>   <dbl>  <dbl>  <dbl>
1     0.608         0.608 0.433     1142.       0    27 -11546. 23151. 23380.
# ℹ 3 more variables: deviance <dbl>, df.residual <int>, nobs <int>

tidy(all_20_fit)

# A tibble: 28 × 5
   term                                   estimate std.error statistic   p.value
   <chr>                                     <dbl>     <dbl>     <dbl>     <dbl>
 1 (Intercept)                              3.79     0.0533      71.1  0        
 2 neighbourhood_group_cleansedBrooklyn     0.176    0.0142      12.4  2.99e- 35
 3 neighbourhood_group_cleansedManhattan    0.502    0.0145      34.6  1.47e-254
 4 neighbourhood_group_cleansedQueens       0.0569   0.0149       3.82 1.33e-  4
 5 neighbourhood_group_cleansedStaten Is…  -0.0437   0.0283      -1.54 1.23e-  1
 6 wifiTRUE                                -0.123    0.0344      -3.59 3.32e-  4
 7 workspaceTRUE                            0.0459   0.00642      7.15 9.15e- 13
 8 quietTRUE                               -0.0392   0.00763     -5.14 2.78e-  7
 9 host_is_superhostTRUE                    0.0272   0.00684      3.98 6.98e-  5
10 host_identity_verifiedTRUE               0.0256   0.00941      2.72 6.44e-  3
# ℹ 18 more rows
…
# A tibble: 1 × 12
  r.squared adj.r.squared sigma statistic p.value    df  logLik    AIC    BIC
      <dbl>         <dbl> <dbl>     <dbl>   <dbl> <dbl>   <dbl>  <dbl>  <dbl>
1     0.608         0.607 0.433     1185.       0    26 -11550. 23156. 23378.
# ℹ 3 more variables: deviance <dbl>, df.residual <int>, nobs <int>

tidy(all_19_fit)

# A tibble: 27 × 5
   term                                   estimate std.error statistic   p.value
   <chr>                                     <dbl>     <dbl>     <dbl>     <dbl>
 1 (Intercept)                              3.81     0.0529      72.0  0        
 2 neighbourhood_group_cleansedBrooklyn     0.178    0.0142      12.5  8.16e- 36
 3 neighbourhood_group_cleansedManhattan    0.505    0.0145      34.8  2.08e-257
 4 neighbourhood_group_cleansedQueens       0.0578   0.0149       3.89 1.02e-  4
 5 neighbourhood_group_cleansedStaten Is…  -0.0464   0.0283      -1.64 1.01e-  1
 6 wifiTRUE                                -0.120    0.0344      -3.50 4.65e-  4
 7 workspaceTRUE                            0.0465   0.00642      7.24 4.49e- 13
 8 quietTRUE                               -0.0394   0.00763     -5.17 2.41e-  7
 9 host_is_superhostTRUE                    0.0270   0.00684      3.94 8.19e-  5
10 review_scores_cleanliness                0.123    0.00670     18.3  3.66e- 74
# ℹ 17 more rows
…
# A tibble: 1 × 12
  r.squared adj.r.squared sigma statistic p.value    df  logLik    AIC    BIC
      <dbl>         <dbl> <dbl>     <dbl>   <dbl> <dbl>   <dbl>  <dbl>  <dbl>
1     0.608         0.607 0.433     1232.       0    25 -11556. 23165. 23378.
# ℹ 3 more variables: deviance <dbl>, df.residual <int>, nobs <int>

tidy(all_18_fit)

# A tibble: 26 × 5
   term                                   estimate std.error statistic   p.value
   <chr>                                     <dbl>     <dbl>     <dbl>     <dbl>
 1 (Intercept)                              3.81     0.0529      72.0  0        
 2 neighbourhood_group_cleansedBrooklyn     0.177    0.0142      12.5  1.31e- 35
 3 neighbourhood_group_cleansedManhattan    0.505    0.0145      34.8  1.64e-257
 4 neighbourhood_group_cleansedQueens       0.0577   0.0149       3.87 1.07e-  4
 5 neighbourhood_group_cleansedStaten Is…  -0.0454   0.0283      -1.61 1.08e-  1
 6 wifiTRUE                                -0.120    0.0344      -3.49 4.78e-  4
 7 workspaceTRUE                            0.0461   0.00642      7.18 7.47e- 13
 8 quietTRUE                               -0.0400   0.00763     -5.24 1.62e-  7
 9 host_is_superhostTRUE                    0.0269   0.00685      3.93 8.62e-  5
10 review_scores_cleanliness                0.122    0.00670     18.2  2.80e- 73
# ℹ 16 more rows
…
# A tibble: 1 × 12
  r.squared adj.r.squared sigma statistic p.value    df  logLik    AIC    BIC
      <dbl>         <dbl> <dbl>     <dbl>   <dbl> <dbl>   <dbl>  <dbl>  <dbl>
1     0.607         0.607 0.433     1282.       0    24 -11563. 23178. 23384.
# ℹ 3 more variables: deviance <dbl>, df.residual <int>, nobs <int>

tidy(all_17_fit)

# A tibble: 25 × 5
   term                                   estimate std.error statistic   p.value
   <chr>                                     <dbl>     <dbl>     <dbl>     <dbl>
 1 (Intercept)                              3.78     0.0523      72.2  0        
 2 neighbourhood_group_cleansedBrooklyn     0.179    0.0142      12.6  2.39e- 36
 3 neighbourhood_group_cleansedManhattan    0.504    0.0145      34.7  9.74e-257
 4 neighbourhood_group_cleansedQueens       0.0584   0.0149       3.93 8.67e-  5
 5 neighbourhood_group_cleansedStaten Is…  -0.0446   0.0283      -1.58 1.15e-  1
 6 wifiTRUE                                -0.118    0.0344      -3.44 5.72e-  4
 7 workspaceTRUE                            0.0470   0.00642      7.31 2.70e- 13
 8 quietTRUE                               -0.0385   0.00763     -5.05 4.49e-  7
 9 review_scores_cleanliness                0.127    0.00656     19.4  4.64e- 83
10 host_response_timewithin a day          -0.145    0.0249      -5.84 5.20e-  9
# ℹ 15 more rows
…
# A tibble: 1 × 12
  r.squared adj.r.squared sigma statistic p.value    df  logLik    AIC    BIC
      <dbl>         <dbl> <dbl>     <dbl>   <dbl> <dbl>   <dbl>  <dbl>  <dbl>
1     0.607         0.607 0.433     1336.       0    23 -11569. 23188. 23386.
# ℹ 3 more variables: deviance <dbl>, df.residual <int>, nobs <int>

tidy(all_16_fit)

# A tibble: 24 × 5
   term                                   estimate std.error statistic   p.value
   <chr>                                     <dbl>     <dbl>     <dbl>     <dbl>
 1 (Intercept)                              3.67     0.0422      87.0  0        
 2 neighbourhood_group_cleansedBrooklyn     0.178    0.0142      12.5  8.77e- 36
 3 neighbourhood_group_cleansedManhattan    0.503    0.0145      34.6  1.92e-255
 4 neighbourhood_group_cleansedQueens       0.0567   0.0149       3.81 1.38e-  4
 5 neighbourhood_group_cleansedStaten Is…  -0.0453   0.0283      -1.60 1.10e-  1
 6 workspaceTRUE                            0.0462   0.00642      7.20 6.29e- 13
 7 quietTRUE                               -0.0390   0.00763     -5.11 3.19e-  7
 8 review_scores_cleanliness                0.126    0.00655     19.3  4.17e- 82
 9 host_response_timewithin a day          -0.146    0.0249      -5.86 4.61e-  9
10 host_response_timewithin a few hours    -0.214    0.0246      -8.69 4.04e- 18
# ℹ 14 more rows
…
# A tibble: 1 × 12
  r.squared adj.r.squared sigma statistic p.value    df  logLik    AIC    BIC
      <dbl>         <dbl> <dbl>     <dbl>   <dbl> <dbl>   <dbl>  <dbl>  <dbl>
1     0.607         0.606 0.433     1395.       0    22 -11579. 23207. 23396.
# ℹ 3 more variables: deviance <dbl>, df.residual <int>, nobs <int>

tidy(all_15_fit)

# A tibble: 23 × 5
   term                                   estimate std.error statistic   p.value
   <chr>                                     <dbl>     <dbl>     <dbl>     <dbl>
 1 (Intercept)                              3.63     0.0415      87.6  0        
 2 neighbourhood_group_cleansedBrooklyn     0.176    0.0142      12.4  5.29e- 35
 3 neighbourhood_group_cleansedManhattan    0.500    0.0145      34.5  3.65e-253
 4 neighbourhood_group_cleansedQueens       0.0542   0.0149       3.64 2.72e-  4
 5 neighbourhood_group_cleansedStaten Is…  -0.0486   0.0283      -1.72 8.56e-  2
 6 workspaceTRUE                            0.0466   0.00642      7.26 4.13e- 13
 7 quietTRUE                               -0.0395   0.00763     -5.18 2.24e-  7
 8 review_scores_cleanliness                0.127    0.00656     19.3  2.38e- 82
 9 host_response_timewithin a day          -0.145    0.0249      -5.84 5.36e-  9
10 host_response_timewithin a few hours    -0.215    0.0246      -8.75 2.32e- 18
# ℹ 13 more rows
…
# A tibble: 1 × 12
  r.squared adj.r.squared sigma statistic p.value    df  logLik    AIC    BIC
      <dbl>         <dbl> <dbl>     <dbl>   <dbl> <dbl>   <dbl>  <dbl>  <dbl>
1     0.606         0.606 0.434     1457.       0    21 -11595. 23236. 23417.
# ℹ 3 more variables: deviance <dbl>, df.residual <int>, nobs <int>

tidy(all_14_fit)

# A tibble: 22 × 5
   term                                   estimate std.error statistic   p.value
   <chr>                                     <dbl>     <dbl>     <dbl>     <dbl>
 1 (Intercept)                              3.67     0.0409      89.9  0        
 2 neighbourhood_group_cleansedBrooklyn     0.173    0.0142      12.2  3.44e- 34
 3 neighbourhood_group_cleansedManhattan    0.498    0.0145      34.3  9.23e-251
 4 neighbourhood_group_cleansedQueens       0.0544   0.0149       3.65 2.60e-  4
 5 neighbourhood_group_cleansedStaten Is…  -0.0480   0.0283      -1.69 9.03e-  2
 6 workspaceTRUE                            0.0482   0.00642      7.51 6.31e- 14
 7 quietTRUE                               -0.0396   0.00764     -5.19 2.17e-  7
 8 review_scores_cleanliness                0.127    0.00656     19.3  1.87e- 82
 9 host_response_timewithin a day          -0.123    0.0246      -4.99 6.19e-  7
10 host_response_timewithin a few hours    -0.179    0.0237      -7.53 5.17e- 14
# ℹ 12 more rows
…
